{
  "project_info": {
    "project_number": "1001789920614",
    "project_id": "socialmixappproject"
  },
  "client": [
    {
      "client_info": {
        "mobilesdk_app_id": "1:1001789920614:android:372680009d779002",
        "android_client_info": {
          "package_name": "com.volansys.socialmixapp"
        }
      },
      "oauth_client": [
        {
          "client_id": "1001789920614-cakojgfbuf2cv2bq518duffpnd6ok9b5.apps.googleusercontent.com",
          "client_type": 1,
          "android_info": {
            "package_name": "com.volansys.socialmixapp",
            "certificate_hash": "1add923b86dce4e41dce4b0d4dab83b11949aeea"
          }
        },
        {
          "client_id": "1001789920614-s0taijtvmdkeu0nla79ufvh2h7ao9kbu.apps.googleusercontent.com",
          "client_type": 3
        }
      ],
      "api_key": [
        {
          "current_key": "AIzaSyD54ukX2OuHqFm2dYHsesK0mcwLDSEa6Go"
        }
      ],
      "services": {
        "analytics_service": {
          "status": 1
        },
        "appinvite_service": {
          "status": 1,
          "other_platform_oauth_client": []
        },
        "ads_service": {
          "status": 1
        }
      }
    }
  ],
  "configuration_version": "1"
}